{
  "queue": [
    {
      "name": "SnowLeopard1",
      "type": "jobQueue",
      "publicAccess": "true",
      "global": false
    },
    {
      "name": "SnowLeopard2",
      "publicAccess": "true",
      "type": "jobQueue"
    },
    {
      "name": "logs",
      "publicAccess": true,
      "type": "jobQueue",
      "associatedScript": null
    }
  ]
}
